<?xml version="1.0" encoding="UTF-8"?>
<svg id="Arte" xmlns="http://www.w3.org/2000/svg" viewBox="0 0 115.77 43.99">
  <defs>
    <style>
      .cls-1 {
        fill: none;
        stroke: #333;
        stroke-miterlimit: 10;
        stroke-width: .68px;
      }

      .cls-2 {
        fill: #333;
      }
    </style>
  </defs>
  <g>
    <path class="cls-2" d="M19.74,18.84h3.06v.6h-2.45v1.91h2.45v.6h-2.45v3h-.61v-6.11Z"/>
    <path class="cls-2" d="M23.7,20.43h.58v2.11c0,.52,.03,.87,.08,1.06,.08,.28,.24,.5,.48,.66,.23,.16,.51,.24,.84,.24s.6-.08,.83-.24c.23-.16,.38-.36,.47-.62,.06-.17,.09-.54,.09-1.11v-2.11h.59v2.22c0,.62-.07,1.09-.22,1.41-.14,.32-.36,.56-.66,.74-.29,.18-.66,.27-1.1,.27s-.81-.09-1.1-.27-.52-.43-.66-.75c-.14-.32-.22-.8-.22-1.44v-2.18Z"/>
    <path class="cls-2" d="M28.94,20.43h.58v.81c.23-.31,.49-.54,.77-.7,.28-.15,.59-.23,.92-.23s.64,.09,.9,.26c.26,.17,.46,.4,.58,.69,.12,.29,.19,.74,.19,1.36v2.33h-.58v-2.16c0-.52-.02-.87-.07-1.04-.07-.3-.2-.52-.39-.67-.19-.15-.44-.23-.75-.23-.35,0-.67,.12-.95,.35s-.46,.52-.55,.86c-.06,.22-.08,.63-.08,1.23v1.66h-.58v-4.52Z"/>
    <path class="cls-2" d="M38.52,21.37l-.46,.29c-.4-.53-.94-.79-1.63-.79-.55,0-1.01,.18-1.37,.53-.36,.35-.54,.78-.54,1.29,0,.33,.08,.64,.25,.93,.17,.29,.4,.52,.69,.68s.62,.24,.98,.24c.66,0,1.21-.26,1.63-.79l.46,.3c-.22,.33-.51,.58-.87,.76-.36,.18-.78,.27-1.24,.27-.71,0-1.31-.23-1.78-.68s-.71-1.01-.71-1.66c0-.44,.11-.84,.33-1.22,.22-.38,.52-.67,.91-.88,.38-.21,.82-.32,1.29-.32,.3,0,.59,.05,.87,.14,.28,.09,.51,.21,.71,.36,.19,.15,.36,.33,.5,.56Z"/>
    <path class="cls-2" d="M39.83,18.57c.13,0,.25,.05,.34,.14,.09,.09,.14,.21,.14,.34s-.05,.24-.14,.34c-.09,.09-.21,.14-.34,.14s-.24-.05-.33-.14c-.09-.09-.14-.21-.14-.34s.05-.25,.14-.34c.09-.09,.21-.14,.33-.14Zm-.29,1.86h.58v4.52h-.58v-4.52Z"/>
    <path class="cls-2" d="M43.47,20.31c.7,0,1.27,.25,1.73,.76,.42,.46,.62,1,.62,1.63s-.22,1.18-.66,1.66-1,.71-1.7,.71-1.26-.24-1.7-.71-.66-1.02-.66-1.66,.21-1.17,.62-1.63c.46-.51,1.04-.76,1.73-.76Zm0,.57c-.48,0-.9,.18-1.25,.54s-.52,.79-.52,1.3c0,.33,.08,.63,.24,.91,.16,.28,.37,.5,.64,.65,.27,.15,.57,.23,.89,.23s.62-.08,.89-.23c.27-.15,.48-.37,.64-.65,.16-.28,.24-.59,.24-.91,0-.51-.17-.94-.52-1.3s-.76-.54-1.24-.54Zm.29-2.57h.89l-1.22,1.28h-.57l.91-1.28Z"/>
    <path class="cls-2" d="M46.9,20.43h.58v.81c.23-.31,.49-.54,.77-.7,.28-.15,.59-.23,.92-.23s.64,.09,.9,.26c.26,.17,.46,.4,.58,.69,.12,.29,.19,.74,.19,1.36v2.33h-.58v-2.16c0-.52-.02-.87-.07-1.04-.07-.3-.2-.52-.39-.67-.19-.15-.44-.23-.75-.23-.35,0-.67,.12-.95,.35s-.46,.52-.55,.86c-.06,.22-.08,.63-.08,1.23v1.66h-.58v-4.52Z"/>
    <path class="cls-2" d="M58.96,18.68v6.26h-.57v-.78c-.24,.3-.52,.52-.82,.67-.3,.15-.63,.22-1,.22-.64,0-1.19-.23-1.64-.7-.45-.46-.68-1.03-.68-1.69s.23-1.21,.69-1.67c.46-.46,1.01-.69,1.65-.69,.37,0,.71,.08,1.01,.24,.3,.16,.56,.39,.79,.71v-2.58h.57Zm-2.32,2.19c-.32,0-.62,.08-.9,.24-.27,.16-.49,.38-.65,.67-.16,.29-.24,.59-.24,.91s.08,.62,.25,.91c.16,.29,.38,.52,.66,.68s.57,.24,.89,.24,.62-.08,.9-.24,.5-.38,.66-.65c.15-.27,.23-.58,.23-.92,0-.52-.17-.96-.52-1.31-.34-.35-.77-.53-1.27-.53Z"/>
    <path class="cls-2" d="M64.08,23.45l.49,.26c-.16,.32-.35,.57-.56,.76-.21,.19-.45,.34-.71,.44-.26,.1-.56,.15-.89,.15-.74,0-1.31-.24-1.73-.72-.42-.48-.62-1.03-.62-1.64,0-.57,.18-1.08,.53-1.53,.45-.57,1.04-.86,1.79-.86s1.39,.29,1.85,.88c.33,.41,.49,.93,.5,1.54h-4.07c.01,.53,.18,.96,.5,1.29s.72,.5,1.2,.5c.23,0,.45-.04,.67-.12s.4-.19,.55-.32c.15-.13,.32-.35,.5-.64Zm0-1.22c-.08-.31-.19-.56-.34-.74-.15-.18-.34-.33-.59-.45-.24-.11-.5-.17-.77-.17-.44,0-.83,.14-1.14,.43-.23,.21-.41,.52-.53,.93h3.37Z"/>
    <path class="cls-2" d="M71.96,23.45l.49,.26c-.16,.32-.35,.57-.56,.76-.21,.19-.45,.34-.71,.44-.26,.1-.56,.15-.89,.15-.74,0-1.31-.24-1.73-.72-.42-.48-.62-1.03-.62-1.64,0-.57,.18-1.08,.53-1.53,.45-.57,1.04-.86,1.79-.86s1.39,.29,1.85,.88c.33,.41,.49,.93,.5,1.54h-4.07c.01,.53,.18,.96,.5,1.29s.72,.5,1.2,.5c.23,0,.45-.04,.67-.12s.4-.19,.55-.32c.15-.13,.32-.35,.5-.64Zm0-1.22c-.08-.31-.19-.56-.34-.74-.15-.18-.34-.33-.59-.45-.24-.11-.5-.17-.77-.17-.44,0-.83,.14-1.14,.43-.23,.21-.41,.52-.53,.93h3.37Z"/>
    <path class="cls-2" d="M73.68,20.43h.58v.81c.23-.31,.49-.54,.77-.7,.28-.15,.59-.23,.92-.23s.64,.09,.9,.26c.26,.17,.46,.4,.58,.69,.12,.29,.19,.74,.19,1.36v2.33h-.58v-2.16c0-.52-.02-.87-.07-1.04-.07-.3-.2-.52-.39-.67-.19-.15-.44-.23-.75-.23-.35,0-.67,.12-.95,.35s-.46,.52-.55,.86c-.06,.22-.08,.63-.08,1.23v1.66h-.58v-4.52Z"/>
    <path class="cls-2" d="M78.78,18.68h.58v6.26h-.58v-6.26Z"/>
    <path class="cls-2" d="M85.08,20.43v4.52h-.57v-.78c-.24,.3-.52,.52-.82,.67-.3,.15-.63,.22-.99,.22-.64,0-1.19-.23-1.64-.7-.45-.46-.68-1.03-.68-1.69s.23-1.21,.68-1.67c.46-.46,1.01-.69,1.65-.69,.37,0,.71,.08,1.01,.24,.3,.16,.56,.39,.79,.71v-.83h.57Zm-2.32,.44c-.32,0-.62,.08-.9,.24-.27,.16-.49,.38-.65,.67-.16,.29-.24,.59-.24,.91s.08,.62,.24,.91c.16,.29,.38,.52,.66,.68,.27,.16,.57,.24,.88,.24s.62-.08,.91-.24c.28-.16,.5-.38,.66-.65,.15-.27,.23-.58,.23-.92,0-.52-.17-.96-.52-1.31-.34-.35-.77-.53-1.27-.53Z"/>
    <path class="cls-2" d="M90.77,21.37l-.46,.29c-.4-.53-.94-.79-1.63-.79-.55,0-1.01,.18-1.37,.53-.36,.35-.54,.78-.54,1.29,0,.33,.08,.64,.25,.93,.17,.29,.4,.52,.69,.68s.62,.24,.98,.24c.66,0,1.21-.26,1.63-.79l.46,.3c-.22,.33-.51,.58-.87,.76-.36,.18-.78,.27-1.24,.27-.71,0-1.31-.23-1.78-.68s-.71-1.01-.71-1.66c0-.44,.11-.84,.33-1.22,.22-.38,.52-.67,.91-.88,.38-.21,.82-.32,1.29-.32,.3,0,.59,.05,.87,.14,.28,.09,.51,.21,.71,.36,.19,.15,.36,.33,.5,.56Z"/>
    <path class="cls-2" d="M95.69,23.45l.49,.26c-.16,.32-.35,.57-.56,.76-.21,.19-.45,.34-.71,.44-.26,.1-.56,.15-.89,.15-.74,0-1.31-.24-1.73-.72-.42-.48-.62-1.03-.62-1.64,0-.57,.18-1.08,.53-1.53,.45-.57,1.04-.86,1.79-.86s1.39,.29,1.85,.88c.33,.41,.49,.93,.5,1.54h-4.07c.01,.53,.18,.96,.5,1.29s.72,.5,1.2,.5c.23,0,.45-.04,.67-.12s.4-.19,.55-.32c.15-.13,.32-.35,.5-.64Zm0-1.22c-.08-.31-.19-.56-.34-.74-.15-.18-.34-.33-.59-.45-.24-.11-.5-.17-.77-.17-.44,0-.83,.14-1.14,.43-.23,.21-.41,.52-.53,.93h3.37Z"/>
  </g>
  <rect class="cls-1" x=".34" y=".34" width="115.09" height="43.31" rx="9.5" ry="9.5"/>
</svg>